V1,V2,V3,V4,V5,V6,V7,V8,V9,V10,V11,V12,V13,V14,V15,V16,V17,V18,V19,V20,V21,V22,V23,V24,V25,V26,V27,V28,V29,V30
传销,王伍,教辅,一金,校长,耒马台,患者,口子,限行,百忙之中,振西,离岗,龚某,基数,重视,购房者,征地,安联,十一年,天然气,坑地,生育,焦点访谈,镀锌,气味,金典,泵站,没,纪念馆,赵庄村
拉丁舞,班组,物流业,献给,补课费,城镇化,手术,不修,废弃物,过问,物业,遴选,谷彬,企业职工,是不是,香江,绿泽农,香槟,南沟,收取,禁牧,再婚,唐海县,砂子,难闻,转企,罚没款,实在,甜城,大姐
文生,清欠办,强化,正式工,补习班,大棚,药物,无繁,黑车,剥离,停水,教师,案件,社会保险费,魏县,国源,金莲,二十里,港中旅,壁挂炉,惠农,贷款,供热,迪,呛,盛卓为,五名,找,水上,离婚
舞厅,佰工,创新,编制,到校,建设项目,药费,拉沙,三轮车,尊敬,桥西区,考试,证据,退休,有没有,彭衍军,宅基地,中城,租房,乱收费,贫困户,二胎,集资费,上游,毒气,职工,妥善解决,不了,导游证,证明
营业,老板,加强,涨工资,班里,汇康,门诊,滨海公路,门红旭,请,电费,乡村,嫌疑人,社保,听说,复工,村委会,沉降,回迁,燃气,脱贫,提取,温度,喝上,兰州,给付,管理局,退,旅行社,户籍
新局,农民工,技术,乡镇,书店,城乡规划,尼,菜农,司机,百忙中,物业公司,面试,户主,养老金,建房,房地产,确权,换房,迁户,水费,哥哥,卫生室,管道工程,埐,岩棉,双滦区,化保,娇乡,首尔,打工
太行,奶农,推进,工资待遇,初三,规划,白血病,修,公交车,增林,政发,党政机关,录像,十六年,定兴县,楼盘,补偿款,地产,拆迁,宣化区,何庄,二孩,唐山,烧纸,拉面,解除,周多,说法,打伤,二手房
统计,干活,加大,转业干部,复习,何儒杰,碘,加油站,富士康,一下,暖气费,放宽,认定,保险,拜托,售楼部,石料厂,房管局,大变样,改气,高柱,产假,建设费,大沟,饭店,华润,抚恤,不到,监管部门,外地
融资,工地,力度,待遇,高二,入口,间质,段,车道,感谢,电,教师工资,办案,下岗,抽时间,退款,土地补偿,齐全,新房,西厅,易地,按揭,冻,影碑,扰民,房租费,这条长,每次,黑,落
利民,劳动局,卓华,乡镇干部,下课,天然,儿童医院,行唐县,占道,抽出,宽带,评上,暴力,失业,武安,退房,太平街,过户,周各庄,选购,低保户,罚款,开平区,微克,入睡,标段,之时,回复,何在,爸爸
洗脑,邢云,缺乏,士官,中学生,小城镇,化疗,这条,一体化,一名,居委会,一线,净,员工,问下,香河,张路,办理,尚苑,小房,多少钱,亲爱,栾城,树墩,烧烤店,诚信,自收自支,一年,游客,落户
娱乐活动,讨要,实现,绩效,练习册,府河,慢性病,刘某,堵车,兴荣织染,水电,期满,多项,劳动法,居住证,违约金,沉陷,产权,房子,交钱,贫困县,生育权,取消,鸡粪,音响,停产,深泽县,催,拉客,转回
监管局,过年,评价,退役,升学,拟建,汀,城外,交通,感谢您,小区业主,报考,日杂,买断,模拟,项目,承包地,五证,烂尾楼,太阳能,没收,借款,热,养鸡场,呼吸,流失,副县长,一品,外壳,弟弟
京东,监察,推动,退伍,教育资源,门脸,监护室,明德,客车,国有资产,登记证,本科,立即,退休职工,一下,交工,收回,未办理,一套,实施办法,万国,校区,挨冻,河道,露天,停发,七九年,市里,食品药品,母亲
平房,给钱,带动,部队,家长,高铁,确诊,暴晒,马路,智,办证,两地分居,国土,缴费,驾驶证,港湾,甸子,网签,三期,表,翻盖,一份,入网费,大坑,昼夜,转包,批示,怎么回事,旅游,合作医疗
培训班,结清,产品,参战,学生,种植,赫赛,环至,人行,私有财产,不热,招聘,违章建筑,医疗保险,市民,销售,输电,专治,动工,收钱,补助款,准生证,度过,防洪,采光,县政府,陈,去年,狗,农业户口
丰凝,上届,内涵,基层工作,高中,养殖,毛白杨,坑坑洼洼,行测,装入,泓,荣誉,曲周县,职工,成,新华区,基本农田,龙湾,永邦,第一年,换届选举,挣钱,外来人口,俺村,分贝,职工工资,上级领导,挣钱,严厉打击,医学
城上城,多平方米,家庭教育,转正,学院,三地,重症,过往,省直管,厂长,地下室,积极性,流血,社保局,县政府,年底,强行,房地产,盖,多元,丧事,首付,接入,崔各庄,空调,起重机,抗日,多次,牌照,社保卡
短消息,煎,智电,青春,容量,改正,透析,积水,限号,肯求,龙泉,入编,同村,护理费,河北,动工,承包合同,落宗,金康雅居,强行,亲戚,体会,肥乡,米,单元,员工,建成,交,受损,大名县
阳光工程,王府,扶持,在编,教委,万吨,尿毒症,灌溉,打通,家电,实业,从教,不久,工伤,普通,消费者,口粮田,业主,过度,通气,贫困村,这种,案例,山北,休息,之久,出门,进城,查处,号码
