\relax 
\providecommand\hyper@newdestlabel[2]{}
\providecommand{\transparent@use}[1]{}
\providecommand\HyperFirstAtBeginDocument{\AtBeginDocument}
\HyperFirstAtBeginDocument{\ifx\hyper@anchor\@undefined
\global\let\oldcontentsline\contentsline
\gdef\contentsline#1#2#3#4{\oldcontentsline{#1}{#2}{#3}}
\global\let\oldnewlabel\newlabel
\gdef\newlabel#1#2{\newlabelxx{#1}#2}
\gdef\newlabelxx#1#2#3#4#5#6{\oldnewlabel{#1}{{#2}{#3}}}
\AtEndDocument{\ifx\hyper@anchor\@undefined
\let\contentsline\oldcontentsline
\let\newlabel\oldnewlabel
\fi}
\fi}
\global\let\hyper@last\relax 
\gdef\HyperFirstAtBeginDocument#1{#1}
\providecommand\HyField@AuxAddToFields[1]{}
\providecommand\HyField@AuxAddToCoFields[2]{}
\citation{ownwork}
\@writefile{toc}{\contentsline {section}{\numberline {1}Introduction}{1}{section.1}}
\@writefile{lof}{\contentsline {figure}{\numberline {1}{\ignorespaces Semi-Supervised Learning (From Yang and Ringlage, 2018)\relax }}{1}{figure.caption.1}}
\providecommand*\caption@xref[2]{\@setref\relax\@undefined{#1}}
\newlabel{fig:arch}{{1}{1}{Semi-Supervised Learning (From Yang and Ringlage, 2018)\relax }{figure.caption.1}{}}
\@writefile{lot}{\contentsline {table}{\numberline {1}{\ignorespaces Distribution of Substantive Labels\relax }}{2}{table.caption.2}}
\newlabel{tab:issue}{{1}{2}{Distribution of Substantive Labels\relax }{table.caption.2}{}}
\citation{jiebar}
\citation{stopwords}
\citation{blei2003latent}
\citation{roberts2014structural}
\citation{mimno2011optimizing}
\citation{bischof2012summarizing}
\@writefile{toc}{\contentsline {section}{\numberline {2}Topical Features and Human-Generated Labels}{3}{section.2}}
\@writefile{lof}{\contentsline {figure}{\numberline {2}{\ignorespaces Examples from $k = 25, \alpha = 0.8$\relax }}{4}{figure.caption.3}}
\newlabel{fig:step_1_avg_prob}{{2}{4}{Examples from $k = 25, \alpha = 0.8$\relax }{figure.caption.3}{}}
\newlabel{fig:step_1_avg_prob_a}{{2a}{4}{Example: Single-Membership\relax }{figure.caption.3}{}}
\newlabel{sub@fig:step_1_avg_prob_a}{{a}{4}{Example: Single-Membership\relax }{figure.caption.3}{}}
\newlabel{fig:step_1_avg_prob_b}{{2b}{4}{Example: Mixture-Membership\relax }{figure.caption.3}{}}
\newlabel{sub@fig:step_1_avg_prob_b}{{b}{4}{Example: Mixture-Membership\relax }{figure.caption.3}{}}
\newlabel{fig:step_1_avg_prob_c}{{2c}{4}{Example: Unidentified Relation\relax }{figure.caption.3}{}}
\newlabel{sub@fig:step_1_avg_prob_c}{{c}{4}{Example: Unidentified Relation\relax }{figure.caption.3}{}}
\newlabel{fig:step_1_avg_prob_d}{{2d}{4}{Example: Misidentification\relax }{figure.caption.3}{}}
\newlabel{sub@fig:step_1_avg_prob_d}{{d}{4}{Example: Misidentification\relax }{figure.caption.3}{}}
\@writefile{toc}{\contentsline {section}{\numberline {3}Inference from Topical Features}{5}{section.3}}
\citation{sokolova2009systematic}
\@writefile{lof}{\contentsline {figure}{\numberline {3}{\ignorespaces Validation Accuracy\relax }}{6}{figure.caption.4}}
\newlabel{fig:accuracy}{{3}{6}{Validation Accuracy\relax }{figure.caption.4}{}}
\@writefile{toc}{\contentsline {subsection}{\numberline {3.1}Accuracy Metrics}{6}{subsection.3.1}}
\@writefile{lot}{\contentsline {table}{\numberline {2}{\ignorespaces Accuracy Metrics (Only Topical Features)\relax }}{7}{table.caption.5}}
\newlabel{tab:acc_topic}{{2}{7}{Accuracy Metrics (Only Topical Features)\relax }{table.caption.5}{}}
\@writefile{lot}{\contentsline {table}{\numberline {3}{\ignorespaces Accuracy Metrics (Including the Year-Covariate and Interaction Terms)\relax }}{7}{table.caption.6}}
\newlabel{tab:acc_all}{{3}{7}{Accuracy Metrics (Including the Year-Covariate and Interaction Terms)\relax }{table.caption.6}{}}
\@writefile{toc}{\contentsline {subsection}{\numberline {3.2}SVM-Weights}{8}{subsection.3.2}}
\@writefile{lof}{\contentsline {figure}{\numberline {4}{\ignorespaces SVM-Weights from Model based on Topical Features\relax }}{9}{figure.caption.7}}
\newlabel{fig:step_2_weight_topic}{{4}{9}{SVM-Weights from Model based on Topical Features\relax }{figure.caption.7}{}}
\newlabel{fig:step_2_weight_topic_a}{{4a}{9}{Example: Single Inference $(F1 = 66.17)$\relax }{figure.caption.7}{}}
\newlabel{sub@fig:step_2_weight_topic_a}{{a}{9}{Example: Single Inference $(F1 = 66.17)$\relax }{figure.caption.7}{}}
\newlabel{fig:step_2_weight_topic_b}{{4b}{9}{Example: Multiple Inferences $(F1 = 76.07)$\relax }{figure.caption.7}{}}
\newlabel{sub@fig:step_2_weight_topic_b}{{b}{9}{Example: Multiple Inferences $(F1 = 76.07)$\relax }{figure.caption.7}{}}
\newlabel{fig:step_2_weight_topic_c}{{4c}{9}{Example: Partial Identification $(F1 = 45.05)$\relax }{figure.caption.7}{}}
\newlabel{sub@fig:step_2_weight_topic_c}{{c}{9}{Example: Partial Identification $(F1 = 45.05)$\relax }{figure.caption.7}{}}
\newlabel{fig:step_2_weight_topic_d}{{4d}{9}{Example: Partial Identification $(F1 = 35.07)$\relax }{figure.caption.7}{}}
\newlabel{sub@fig:step_2_weight_topic_d}{{d}{9}{Example: Partial Identification $(F1 = 35.07)$\relax }{figure.caption.7}{}}
\newlabel{fig:step_2_weight_topic_e}{{4e}{9}{Example: Weak Inference $(F1 = 16.22)$\relax }{figure.caption.7}{}}
\newlabel{sub@fig:step_2_weight_topic_e}{{e}{9}{Example: Weak Inference $(F1 = 16.22)$\relax }{figure.caption.7}{}}
\newlabel{fig:step_2_weight_topic_f}{{4f}{9}{Example: "No" Inference $(F1 = 0)$\relax }{figure.caption.7}{}}
\newlabel{sub@fig:step_2_weight_topic_f}{{f}{9}{Example: "No" Inference $(F1 = 0)$\relax }{figure.caption.7}{}}
\@writefile{lof}{\contentsline {figure}{\numberline {5}{\ignorespaces SVM-Weights regarding Culture/Entertainment according from 2014 to 2018 (Topical Features with the Covariate and the Interactive Terms)\relax }}{10}{figure.caption.8}}
\newlabel{fig:step_2_weight_year_culture}{{5}{10}{SVM-Weights regarding Culture/Entertainment according from 2014 to 2018 (Topical Features with the Covariate and the Interactive Terms)\relax }{figure.caption.8}{}}
\@writefile{lof}{\contentsline {figure}{\numberline {6}{\ignorespaces SVM-Weights regarding Finance according from 2014 to 2018 (Topical Features with the Covariate and the Interactive Terms)\relax }}{11}{figure.caption.9}}
\newlabel{fig:step_2_weight_year_finance}{{6}{11}{SVM-Weights regarding Finance according from 2014 to 2018 (Topical Features with the Covariate and the Interactive Terms)\relax }{figure.caption.9}{}}
\@writefile{lof}{\contentsline {figure}{\numberline {7}{\ignorespaces SVM-Weights regarding Environment according from 2014 to 2018 (Topical Features with the Covariate and the Interactive Terms)\relax }}{11}{figure.caption.10}}
\newlabel{fig:step_2_weight_year_environment}{{7}{11}{SVM-Weights regarding Environment according from 2014 to 2018 (Topical Features with the Covariate and the Interactive Terms)\relax }{figure.caption.10}{}}
\@writefile{toc}{\contentsline {section}{\numberline {4}Prediction Analysis}{12}{section.4}}
\@writefile{toc}{\contentsline {subsection}{\numberline {4.1}Distribution of Predicted Labels}{12}{subsection.4.1}}
\@writefile{lot}{\contentsline {table}{\numberline {4}{\ignorespaces Distribution of Predicted Labels ($k = 25, \alpha = 0.8$)\relax }}{12}{table.caption.11}}
\newlabel{tab:pred_dist}{{4}{12}{Distribution of Predicted Labels ($k = 25, \alpha = 0.8$)\relax }{table.caption.11}{}}
\@writefile{lof}{\contentsline {figure}{\numberline {8}{\ignorespaces Average Probability of Topical Features Given Predicted Labels in Test Data\relax }}{13}{figure.caption.12}}
\newlabel{fig:pred_avg}{{8}{13}{Average Probability of Topical Features Given Predicted Labels in Test Data\relax }{figure.caption.12}{}}
\@writefile{lof}{\contentsline {figure}{\numberline {9}{\ignorespaces Average Probability of Topical Features Given Predicted Labels (Continued)\relax }}{14}{figure.caption.13}}
\newlabel{fig:pred_avg_cont}{{9}{14}{Average Probability of Topical Features Given Predicted Labels (Continued)\relax }{figure.caption.13}{}}
\citation{mimno2011optimizing}
\@writefile{toc}{\contentsline {subsection}{\numberline {4.2}Topical Features and Machine-Predicted Labels}{15}{subsection.4.2}}
\@writefile{toc}{\contentsline {section}{\numberline {5}Discussion}{15}{section.5}}
\bibdata{1.bib}
\bibcite{stopwords}{\citeauthoryear {Benoit, Muhr,{}\ \BBA{} Watanabe}{Benoit\ \BOthers {.}}{{\APACyear {2017}}}}
\APACbibcite{stopwords}{\citeauthoryear {Benoit, Muhr,{}\ \BBA{} Watanabe}{Benoit\ \BOthers {.}}{{\APACyear {2017}}}}
\bibcite{bischof2012summarizing}{\citeauthoryear {Bischof\ \BBA{} Airoldi}{Bischof\ \BBA{} Airoldi}{{\APACyear {2012}}}}
\APACbibcite{bischof2012summarizing}{\citeauthoryear {Bischof\ \BBA{} Airoldi}{Bischof\ \BBA{} Airoldi}{{\APACyear {2012}}}}
\bibcite{blei2003latent}{\citeauthoryear {Blei, Ng,{}\ \BBA{} Jordan}{Blei\ \BOthers {.}}{{\APACyear {2003}}}}
\APACbibcite{blei2003latent}{\citeauthoryear {Blei, Ng,{}\ \BBA{} Jordan}{Blei\ \BOthers {.}}{{\APACyear {2003}}}}
\bibcite{mimno2011optimizing}{\citeauthoryear {Mimno, Wallach, Talley, Leenders,{}\ \BBA{} McCallum}{Mimno\ \BOthers {.}}{{\APACyear {2011}}}}
\APACbibcite{mimno2011optimizing}{\citeauthoryear {Mimno, Wallach, Talley, Leenders,{}\ \BBA{} McCallum}{Mimno\ \BOthers {.}}{{\APACyear {2011}}}}
\bibcite{roberts2014structural}{\citeauthoryear {Roberts\ \BOthers {.}}{Roberts\ \BOthers {.}}{{\APACyear {2014}}}}
\APACbibcite{roberts2014structural}{\citeauthoryear {Roberts\ \BOthers {.}}{Roberts\ \BOthers {.}}{{\APACyear {2014}}}}
\bibcite{sokolova2009systematic}{\citeauthoryear {Sokolova\ \BBA{} Lapalme}{Sokolova\ \BBA{} Lapalme}{{\APACyear {2009}}}}
\APACbibcite{sokolova2009systematic}{\citeauthoryear {Sokolova\ \BBA{} Lapalme}{Sokolova\ \BBA{} Lapalme}{{\APACyear {2009}}}}
\bibcite{jiebar}{\citeauthoryear {Wenfeng\ \BBA{} Yanyi}{Wenfeng\ \BBA{} Yanyi}{{\APACyear {2018}}}}
\APACbibcite{jiebar}{\citeauthoryear {Wenfeng\ \BBA{} Yanyi}{Wenfeng\ \BBA{} Yanyi}{{\APACyear {2018}}}}
\bibcite{ownwork}{\citeauthoryear {Yang\ \BBA{} Ringlage}{Yang\ \BBA{} Ringlage}{{\APACyear {2018}}}}
\APACbibcite{ownwork}{\citeauthoryear {Yang\ \BBA{} Ringlage}{Yang\ \BBA{} Ringlage}{{\APACyear {2018}}}}
\bibstyle{apacite}
\@writefile{toc}{\contentsline {section}{References}{17}{section.5}}
